{
  "data": [
      {
          "id": "101",
          "item1": "item1",
          "item2": "item2",
          "item3": "item3",
          "item4": "item4",
          "item5": "item5",
          "status": "one"
      },
      {
          "id": "102",
          "item1": "item1",
          "item2": "item2",
          "item3": "item3",
          "item4": "item4",
          "item5": "item5",
          "status": "two"
      },
      {
          "id": "103",
          "item1": "item1",
          "item2": "item2",
          "item3": "item3",
          "item4": "item4",
          "item5": "item5",
          "status": "three"
      },
      {
          "id": "104",
          "item1": "item1",
          "item2": "item2",
          "item3": "item3",
          "item4": "item4",
          "item5": "item5",
          "status": "four"
      },
      {
          "id": "105",
          "item1": "item1",
          "item2": "item2",
          "item3": "item3",
          "item4": "item4",
          "item5": "item5",
          "status": "five"
      }
  ],
  "page": 1,
  "total": 13,
  "totalPage": 3
}